KA3WVU ,1
 KB8CFD ,1
 KC3GJU ,1
 KC3WZW ,1
 KC3YAH ,1
 KC3YBC ,1
 KC8YUI ,1
 KD8NZX ,1
 KE8AEQ ,1
 KE8LJL ,1
 KE8LMT ,1
 KE8NHN ,1
 KE8YWA ,1
 KE8ZDN ,1
 KF8AEQ ,1
 KF8AER ,1
 KF8BCE ,1
 KF8CFK ,1
 W8CUL ,1
 W8DYL ,1
 W8ZHN ,1
 WV8RQW ,1
 KC3VOP ,2
 KE8TJF ,2
 KE8YYM ,2
 KF8BAD ,2
 KF8CEW ,2
 N8OZY ,2
 WN3TYC ,2
 KC3YLL ,3
 KE8VWQ ,3
 N3MCA ,3
 KB8AOB ,4
 KE8VEQ ,5
 AD8LQ ,6
 N8TJD ,7
 WB1AAL ,7
 KC3YLF ,8
 KC8NHN ,8
 KQ4LDS ,8
 WA8TGG ,8
 KQ4ORN ,10
 KE8WZW ,13
 N0IAN ,13
 KE8TJE ,14
 N3AMK ,14
